packages/simplify-vcd/simplify_vcd-1.0.0.tar.gz/simplify_vcd-1.0.0/examples/input-1.vcd
$date 2024-12-02 10:51:09.548480 $end
$timescale 1 ns $end
$scope module  $end
$var wire 1 ! pin[0] $end
$upscope $end
$enddefinitions $end
#0
$dumpvars
0!
$end
#20
1!
#124688562
0!
#125318062
1!
#125423020
0!
#125632958
1!
#125744437
0!
#125849375
1!
#126059250
0!
#126688854
1!
#126800354
0!
#127010187
1!
#127115145
0!
#127744666
1!
#127856104
0!
#128800166
1!
#128911604
0!
#129016458
1!
#129121312
0!
#129855812
1!
#129967270
0!
#130072187
1!
#130177062
0!
#130281979
1!
#130386875
0!
#130701666
1!
#131022895
0!
#131127833
1!
#131337625
0!
#131862041
1!
#5298098375
0!
#5298727125
1!
#5298831916
0!
#5299041562
1!
#5299152958
0!
#5299362500
1!
#5299572125
0!
#5300096125
1!
#5300207416
0!
#5301150895
1!
#5301262270
0!
#5301576729
1!
#5301681604
0!
#5301786416
1!
#5301891166
0!
#5302205541
1!
#5302316895
0!
#5303260583
1!
#5303372000
0!
#5303476875
1!
#5303581729
0!
#5304315687
1!
#5304427104
0!
#5304636895
1!
#5304951395
0!
#5305370770
1!
#5305482166
0!
#5305587000
1!
#5306216000
0!
#5306320812
1!
#20734656812
0!
#20735285270
1!
#20735389958
0!
#20735599479
1!
#20735710812
0!
#20735920333
1!
#20736129770
0!
#20736653812
1!
#20736765083
0!
#20737707770
1!
#20737819041
0!
#20738133270
1!
#20738238000
0!
#20738342750
1!
#20738447500
0!
#20738761604
1!
#20738872854
0!
#20739815895
1!
#20739927250
0!
#20740032104
1!
#20740136895
0!
#20740870312
1!
#20740981604
0!
#20741191104
1!
#20741505416
0!
#20741924437
1!
#20742035729
0!
#20742140500
1!
#20742769166
0!
#20742873958
1!
#32984136500
0!
#32984765479
1!
#32984870187
0!
#32985079750
1!
#32985191145
0!
#32985400708
1!
#32985610250
0!
#32986134270
1!
#32986245625
0!
#32987189375
1!
#32987300770
0!
#32987615333
1!
#32987720104
0!
#32987824895
1!
#32987929708
0!
#32988244291
1!
#32988355645
0!
#32989299229
1!
#32989410583
0!
#32989515395
1!
#32989620208
0!
#32990353958
1!
#32990465229
0!
#32990674729
1!
#32990989020
0!
#32991408270
1!
#32991519645
0!
#32991624437
1!
#32992253208
0!
