packages/simplify-vcd/simplify_vcd-1.0.0.tar.gz/simplify_vcd-1.0.0/examples/input-2.vcd
$date 2024-12-12 10:09:40.891950 $end
$timescale 1 ns $end
$scope module  $end
$var wire 1 ! pin[0] $end
$var wire 1 " pin[1] $end
$upscope $end
$enddefinitions $end
#0
$dumpvars
0!
0"
$end
#20
1!
1"
#1250812770
0"
#1254316708
0!
#2678546375
1"
#2683294270
1!
#2791500166
0!
#2791565166
1!
#2791597604
0!
#2791630166
1!
#2791760312
0!
#2791792875
1!
#2791825312
0!
#2791890312
1!
#2792020437
0!
#2792117875
1!
#2792150312
0!
#2792215312
1!
#2792351520
0!
#2792384083
1!
#2792454208
0!
#2792519208
1!
#2792584208
0!
#2792616770
1!
#2792681770
0!
#2792779208
1!
#2792844208
0!
#2792876770
1!
#2793006916
0!
#2793104354
1!
#2795742875
0!
#2796034937
1!
#2800682208
0!
#2800941854
1!
#2805452812
0!
#2805485375
1!
#2805556437
0!
#2805718750
1!
#2810354833
0!
#2810457395
1!
#2815132125
0!
#2815326875
1!
#2819941583
0!
#2820168770
1!
#2825337375
0!
#2825369937
1!
#2825402375
0!
#2825472500
1!
#2825504937
0!
#2825634833
1!
#2830244416
0!
#2830476729
1!
#2835645020
0!
#2835937083
1!
#2841105375
0!
#2841202812
1!
#2841235270
0!
#2841332708
1!
#2846435875
0!
#2846473541
1!
#2846512062
0!
#2846674375
1!
#2851810104
0!
#2851842666
1!
#2851875104
0!
#2851907666
1!
#2851940104
0!
#2852069979
1!
#2856580937
0!
#2856613500
1!
#2856678500
0!
#2856814437
1!
#2862047854
0!
#2862242625
1!
#2866884145
0!
#2867084958
1!
#2872285812
0!
#2872318375
1!
#2872350812
0!
#2872550687
1!
#2877718979
0!
#2877751541
1!
#2877816562
0!
#2877881562
1!
#2877914000
0!
#2878011437
1!
#2882561020
0!
#2882593583
1!
#2882626020
0!
#2882885645
1!
#2887391479
0!
#2887424041
1!
#2887500229
0!
#2887630125
1!
#2892765854
0!
#2892798416
1!
#2892830854
0!
#2892863416
1!
#2892895854
0!
#2892960854
1!
#2898096583
0!
#2898356208
1!
#2903426812
0!
#2903464500
1!
#2903496937
0!
#2903529500
1!
#2903561937
0!
#2903659375
1!
#2908236708
0!
#2908469041
1!
#2913007437
0!
#2913078500
1!
#2913110937
0!
#2913273250
1!
#2918376416
0!
#2918408979
1!
#2918441416
0!
#2918479104
1!
#2918511541
0!
#2918738729
1!
#2923277125
0!
#2923315750
1!
#2923348187
0!
#2923515645
1!
#2928151729
0!
#2928346479
1!
#2933487333
0!
#2933688145
1!
#2938823875
0!
#2938856437
1!
#2938888875
0!
#2939116083
1!
#2943627041
0!
#2943659583
1!
#2943724604
0!
#2943925416
1!
#2949061145
0!
#2949223458
1!
#2949255895
0!
#2949353333
1!
#2954527062
0!
#2954754250
1!
#2959331291
0!
#2959563604
1!
#2964134562
0!
#2964335375
1!
#2968846333
0!
#2968878895
1!
#2968911333
0!
#2968943895
1!
#2969008895
0!
#2969106333
1!
#2974209500
0!
#2974242062
1!
#2974307083
0!
#2974513020
1!
#2979648750
0!
#2979681312
1!
#2979746312
0!
#2979941062
1!
#2985109354
0!
#2985336541
1!
#2990607666
0!
#2990802416
1!
#2995905895
0!
#2996139145
1!
#3001307437
0!
#3001340000
1!
#3001372437
0!
#3001539875
1!
#3006045708
0!
#3006078270
1!
#3006110708
0!
#3006311541
1!
#3010855062
0!
#3011114687
1!
#3015664270
0!
#3015923895
1!
#3020397166
0!
#3020603104
1!
#3025738833
0!
#3025933604
1!
#3031004187
0!
#3031263833
1!
#3035905041
0!
#3036106166
1!
#3041241895
0!
#3041274458
1!
#3041306895
0!
#3041474333
1!
#3045980166
0!
#3046213437
1!
#3051316604
0!
#3051349166
1!
#3051414166
0!
#3051646479
1!
#3056782208
0!
#3056814770
1!
#3056847208
0!
#3056977083
1!
#3061385229
0!
#3061417791
1!
#3061450229
0!
#3061656166
1!
#3066824458
0!
#3067051666
1!
#3072122250
0!
#3072414333
1!
#3076931354
0!
#3077158541
1!
#3081669812
0!
#3081734812
1!
#3081767250
0!
#3081994458
1!
#3086343520
0!
#3086376083
1!
#3086408520
0!
#3086608416
1!
#3091114250
0!
#3091179250
1!
#3091211687
0!
#3091380062
1!
#3096520916
0!
#3096618354
1!
#3096650791
0!
#3096748229
1!
#3101384312
0!
#3101557833
1!
#3105965958
0!
#3106193166
1!
#3110639000
0!
#3110807375
1!
#3110839812
0!
#3110969687
1!
#3116105416
0!
#3116137979
1!
#3116170416
0!
#3116397604
1!
#3121538770
0!
#3121798416
1!
#3126375437
0!
#3126440437
1!
#3126478000
0!
#3126640312
1!
#3131081020
0!
#3131146020
1!
#3131249645
0!
#3131347083
1!
#3161374479
0!
#3161407041
1!
#3165885750
0!
#3165918312
1!
#3166152208
0!
#3166184770
1!
#3166314895
0!
#3166347458
1!
#3173633937
0"
#3173698937
1"
#3173731375
0"
#3173763937
1"
#3173796375
0"
#3173828937
1"
#3173861375
0"
#3173926375
1"
#3173991395
0"
#3174082083
0!
#3174088708
1"
#3174147083
1!
#3174192208
0"
#3174224770
1"
#3177020041
0"
#3177052604
1"
#3177117604
0"
#3177143416
0!
#3177150041
1"
#3177175979
1!
#3177215062
0"
#3177247625
1"
#3177351250
0"
#3177383812
1"
#3177416250
0"
#3177448812
1"
#3177518937
0"
#3177583937
1"
#3177805145
0!
#3177837687
1!
#3178000395
0!
#3178032958
1!
#3178202270
0"
#3178234833
1"
#3178331833
0!
#3178338333
0"
#3178364270
1!
#3178370895
1"
#3178701541
0"
#3178766541
1"
#3178831541
0"
#3178864104
1"
#3178896541
0"
#3178929104
1"
#3178994104
0"
#3179019916
0!
#3179052354
1!
#3179058979
1"
#3179091416
0"
#3179117250
0!
#3179149666
1!
#3179156291
1"
#4905471062
0!
#4906098708
1!
#4906196270
0!
#4906423458
1!
#4906521020
0!
#4906623604
1!
#4906818854
0!
#4907441375
1!
#4907576625
0!
#4908491083
1!
#4908593791
0!
#4908691229
1!
#4908821354
0!
#4909546312
1!
#4909643875
0!
#4910595916
1!
#4910693479
0!
#4910790916
1!
#4910888479
0!
#4911613437
1!
#4911743562
0!
#4911841020
1!
#4912042333
0!
#4912237083
1!
#4912367208
0!
#4912464666
1!
#4912762729
0!
#4912860166
1!
#4913094375
0!
#4913191812
1!
#4913587562
0!
#4913717437
1!
#4913854208
0"
#4914509166
1"
#4914611854
0"
#4914806604
1"
#4914904166
0"
#4915034041
1"
#4915235375
0"
#4915856958
1"
#4915987083
0"
#4916187895
1"
#4916285458
0"
#4916907041
1"
#4917037187
0"
#4917238000
1"
#4917335562
0"
#4917989583
1"
#4918087145
0"
#4919039187
1"
#4919136750
0"
#4919240250
1"
#4919337812
0"
#4919467687
1"
#4919570375
0"
#4920089520
1"
#4920193145
0"
#4920290583
1"
#4920518416
0"
#4920815604
1"
#4920945750
0"
#4921140500
1"
#5791015770
0!
#5791643416
1!
#5791740979
0!
#5791968187
1!
#5792065750
0!
#5792163187
1!
#5792358437
0!
#5792986083
1!
#5793116229
0!
#5794035812
1!
#5794133375
0!
#5794263250
1!
#5794360833
0!
#5795085791
1!
#5795183354
0!
#5796135375
1!
#5796232937
0!
#5796330375
1!
#5796427958
0!
#5797152916
1!
#5797283041
0!
#5797380479
1!
#5797580854
0!
#5797781687
1!
#5797879250
0!
#5798009125
1!
#5798302083
0!
#5798399520
1!
#5798632458
0!
#5798729895
1!
#5799159166
0!
#5799256604
1!
#5799393354
0"
#5800021000
1"
#5800151125
0"
#5800345895
1"
#5800476020
0"
#5800578583
1"
#5800773833
0"
#5801396354
1"
#5801526479
0"
#5801726375
1"
#5801823937
0"
#5802446458
1"
#5802581708
0"
#5802776458
1"
#5802874041
0"
#5803528979
1"
#5803631687
0"
#5804583708
1"
#5804681270
0"
#5804778708
1"
#5804908854
0"
#5805012354
1"
#5805109916
0"
#5805634187
1"
#5805731750
0"
#5805861625
1"
#5806062937
0"
#5806387458
1"
#5806485020
0"
#5806684895
1"
#5890182437
0!
#5890804020
1!
#5890934166
0!
#5891134979
1!
#5891232541
0!
#5891329979
1!
#5891557812
0!
#5892153000
1!
#5892283145
0!
#5893202729
1!
#5893300291
0!
#5893430166
1!
#5893527750
0!
#5894253020
1!
#5894350583
0!
#5895302604
1!
#5895400166
0!
#5895497604
1!
#5895600312
0!
#5896320145
1!
#5896450270
0!
#5896547708
1!
#5896748083
0!
#5896975291
1!
#5897072854
0!
#5897176354
1!
#5897469312
0!
#5897604312
1!
#5897799562
0!
#5897897000
1!
#5898326270
0!
#5898423708
1!
#5898560458
0"
#5899188104
1"
#5899318229
0"
#5899513000
1"
#5899615687
0"
#5899745562
1"
#5899940812
0"
#5900563333
1"
#5900698604
0"
#5900893354
1"
#5900990916
0"
#5901618562
1"
#5901748687
0"
#5901943437
1"
#5902073583
0"
#5902701208
1"
#5902798791
0"
#5903750812
1"
#5903848375
0"
#5903945812
1"
#5904075958
0"
#5904173395
1"
#5904277020
0"
#5904801291
1"
#5904898854
0"
#5905028729
1"
#5905223979
0"
#5905554562
1"
#5905657250
0"
#5905852000
1"
#5990201333
0!
#5990828979
1!
#5990926541
0!
#5991121291
1!
#5991218854
0!
#5991322354
1!
#5991550187
0!
#5992171770
1!
#5992269333
0!
#5993221354
1!
#5993318937
0!
#5993519750
1!
#5993622437
0!
#5994271333
1!
#5994368895
0!
#5995288479
1!
#5995386062
0!
#5995489562
1!
#5995624812
0!
#5996338583
1!
#5996442208
0!
#5996539645
1!
#5996740041
0!
#5997064541
1!
#5997162104
0!
#5997389312
1!
#5997492937
0!
#5997595500
1!
#5997790750
0!
#5997888187
1!
#5998311395
0!
#5998408833
1!
#5998589354
0"
#5999205791
1"
#5999303375
0"
#5999536625
1"
#5999639312
0"
#5999736750
1"
#5999964583
0"
#6000592229
1"
#6000689791
0"
#6000916979
1"
#6001014541
0"
#6001642187
1"
#6001739750
0"
#6002691791
1"
#6002821916
0"
#6002919354
1"
#6003016916
0"
#6003741875
1"
#6003872020
0"
#6003969458
1"
#6004067020
0"
#6004164458
1"
#6004294583
0"
#6004591791
1"
#6004923354
0"
#6005020791
1"
#6005248625
0"
#6005746500
1"
#6090193520
0!
#6090821166
1!
#6090918729
0!
#6091145916
1!
#6091243500
0!
#6091340937
1!
#6091536187
0!
#6092163833
1!
#6092293958
0!
#6093213562
1!
#6093311125
0!
#6093441000
1!
#6093641375
0!
#6094263895
1!
#6094361458
0!
#6095313500
1!
#6095411062
0!
#6095508500
1!
#6095611187
0!
#6096331020
1!
#6096461166
0!
#6096661041
1!
#6096758604
0!
#6096959416
1!
#6097284937
0!
#6097382375
1!
#6097479937
0!
#6097582500
1!
#6097816395
0!
#6097913833
1!
#6098206770
0!
#6098336645
1!
#6098571104
0"
#6099198750
1"
#6099328875
0"
#6099523625
1"
#6099626312
0"
#6099756208
1"
#6099957520
0"
#6100579104
1"
#6100709229
0"
#6100910041
1"
#6101007625
0"
#6101629187
1"
#6101759333
0"
#6102711354
1"
#6102808916
0"
#6103760958
1"
#6103858520
0"
#6104189083
1"
#6104286666
0"
#6104810916
1"
#6104908500
0"
#6105012000
1"
#6105239812
0"
#6105666770
1"
#6105764333
0"
#6105861770
1"
#6190184583
0!
#6190838604
1!
#6190936166
0!
#6191137000
1!
#6191234562
0!
#6191332000
1!
#6191559812
0!
#6192187458
1!
#6192285041
0!
#6193204937
1!
#6193335062
0!
#6193632270
1!
#6193729833
0!
#6194255020
1!
#6194352604
0!
#6195304625
1!
#6195402187
0!
#6195499625
1!
#6195602333
0!
#6196354604
1!
#6196452166
0!
#6196549604
1!
#6196749979
0!
#6197177875
1!
#6197503395
0!
#6197703270
1!
#6197800833
0!
#6197898270
1!
#6198327541
0!
#6198424979
1!
#6198599416
0"
#6199221937
1"
#6199319500
0"
#6199514270
1"
#6199649520
0"
#6199746958
1"
#6199942208
0"
#6200602291
1"
#6200699854
0"
#6200894625
1"
#6201024750
0"
#6201652395
1"
#6201749958
0"
#6202701979
1"
#6202799562
0"
#6203751583
1"
#6203881708
0"
#6204173791
1"
#6204271354
0"
#6204801687
1"
#6204931812
0"
#6205029250
1"
#6205224500
0"
#6205657520
1"
#6205755083
0"
#6205852520
1"
#6290201854
0!
#6290829500
1!
#6290927062
0!
#6291154250
1!
#6291251812
0!
#6291355312
1!
#6291550583
0!
#6292172166
1!
#6292269729
0!
#6293221750
1!
#6293319312
0!
#6293422833
1!
#6293520395
0!
#6293655395
1!
#6293752958
0!
#6294272104
1!
#6294369666
0!
#6295321687
1!
#6295419270
0!
#6295522770
1!
#6295625458
0!
#6296339229
1!
#6296436791
0!
#6296675187
1!
#6296772750
0!
#6296967500
1!
#6297065062
0!
#6297292250
1!
#6297493583
0!
#6297693458
1!
#6297791020
0!
#6297920895
1!
#6298213854
0!
#6298311291
1!
#6298589500
0"
#6299205937
1"
#6299336083
0"
#6299530833
1"
#6299639583
0"
#6299737020
1"
#6299964854
0"
#6300592479
1"
#6300690062
0"
#6300917250
1"
#6301014812
0"
#6301642458
1"
#6301772583
0"
#6302692187
1"
#6302822312
0"
#6303146812
1"
#6303244395
0"
#6303341833
1"
#6303439395
0"
#6303536833
1"
#6303873541
0"
#6304198041
1"
#6304295604
0"
#6304825937
1"
#6304923500
0"
#6305248020
1"
#6305573520
0"
#6305876791
1"
#6390193541
0!
#6390821187
1!
#6390918750
0!
#6391145937
1!
#6391243520
0!
#6391340958
1!
#6391568770
0!
#6392196416
1!
#6392293979
0!
#6393213583
1!
#6393343708
0!
#6393538458
1!
#6393738833
0!
#6394264041
1!
#6394361604
0!
#6395313645
1!
#6395411208
0!
#6395508645
1!
#6395611333
0!
#6396363604
1!
#6396461187
0!
#6396661062
1!
#6396758625
0!
#6397089187
1!
#6397284458
0!
#6397381895
1!
#6397512020
0!
#6397711895
1!
#6397809479
0!
#6397912979
1!
#6398238479
0!
#6398335916
1!
#6398608062
0"
#6399230583
1"
#6399328145
0"
#6399522895
1"
#6399658145
0"
#6399755604
1"
#6399956916
0"
#6400610937
1"
#6400708500
0"
#6400903250
1"
#6401006895
0"
#6401660895
1"
#6401758479
0"
#6402710500
1"
#6402808062
0"
#6402905500
1"
#6403009145
0"
#6403139020
1"
#6403334270
0"
#6403431708
1"
#6403860041
0"
#6404190604
1"
#6404288187
0"
#6404617812
1"
#6404943333
0"
#6405144145
1"
#6405437083
0"
#6405864041
1"
#6490219416
0!
#6490841000
1!
#6490938562
0!
#6491139395
1!
#6491236958
0!
#6491366833
1!
#6491562083
0!
#6492190041
1!
#6492287604
0!
#6493239645
1!
#6493337208
0!
#6493531958
1!
#6493862604
0!
#6494258041
1!
#6494388187
0!
#6495307770
1!
#6495405333
0!
#6495535208
1!
#6495637916
0!
#6496357750
1!
#6496455312
0!
#6496552750
1!
#6496785687
0!
#6497077770
1!
#6497507020
0!
#6497901541
1!
#6498330812
0!
#6498428250
1!
#6498602687
0"
#6499219145
1"
#6499322770
0"
#6499549958
1"
#6499652666
0"
#6499750104
1"
#6499977916
0"
#6500605562
1"
#6500703125
0"
#6500930333
1"
#6501027895
0"
#6501655541
1"
#6501753104
0"
#6502077604
1"
#6502175187
0"
#6502272625
1"
#6502376250
0"
#6502705875
1"
#6502803458
0"
#6502933333
1"
#6503030895
0"
#6503225645
1"
#6503361833
0"
#6503459270
1"
#6503556854
0"
#6503756729
1"
#6503886854
0"
#6504081604
1"
#6504179187
0"
#6504309062
1"
#6504412687
0"
#6504612562
1"
#6504938083
0"
#6505035520
1"
#6505133083
0"
#6505262958
1"
#6505561979
0"
#6505761854
1"
#6590208875
0!
#6590836500
1!
#6590934083
0!
#6591161270
1!
#6591258833
0!
#6591356270
1!
#6591557604
0!
#6592179187
1!
#6592309312
0!
#6593228895
1!
#6593326458
0!
#6593462395
1!
#6593858166
0!
#6594280000
1!
#6594377562
0!
#6595329583
1!
#6595427166
0!
#6595633104
1!
#6595730666
0!
#6596347125
1!
#6596477250
0!
#6596683187
1!
#6596780770
0!
#6596975520
1!
#6597496416
0!
#6597605041
1!
#6597702604
0!
#6597929791
1!
#6598222750
0!
#6598352625
1!
#6598598250
0"
#6599247145
1"
#6599344729
0"
#6599539479
1"
#6599648229
0"
#6599778104
1"
#6599973375
0"
#6600589812
1"
#6600731145
0"
#6601023208
1"
#6601120770
0"
#6601651104
1"
#6601781229
0"
#6602733270
1"
#6602830833
0"
#6603782854
1"
#6603880437
0"
#6603977875
1"
#6604205687
0"
#6604303125
1"
#6604633770
0"
#6604834583
1"
#6604932145
0"
#6605062020
1"
#6605354979
0"
#6605452416
1"
#6605582541
0"
#6605788479
1"
#6605983750
0"
#6606113625
1"
#6606211187
0"
#6606405937
1"
#6606638895
0"
#6606839708
1"
#6607067520
0"
#6607164958
1"
#6607588166
0"
#6607690729
1"
#6607794375
0"
#6607891812
1"
#10090322208
0!
#10090949854
1!
#10091047416
0!
#10091274625
1!
#10091372187
0!
#10091469625
1!
#10091670937
0!
#10092292520
1!
#10092390083
0!
#10093342125
1!
#10093439687
0!
#10093640500
1!
#10093775770
0!
#10094392208
1!
#10094489791
0!
#10095441812
1!
#10095539375
0!
#10095642875
1!
#10095745583
0!
#10096459354
1!
#10096556916
0!
#10096692854
1!
#10096893229
0!
#10097185312
1!
#10097315437
0!
#10097510187
1!
#10097607750
0!
#10097711250
1!
#10097911645
0!
#10098041520
1!
#10098432166
0!
#10098562041
1!
#10098704854
0"
#10099326437
1"
#10099456562
0"
#10099651312
1"
#10099760083
0"
#10099857520
1"
#10100085333
0"
#10100701791
1"
#10100810541
0"
#10101037750
1"
#10101135312
0"
#10101756895
1"
#10101860520
0"
#10102812541
1"
#10102942687
0"
#10103040125
1"
#10103137687
0"
#10103862645
1"
#10103992770
0"
#10104090208
1"
#10104187770
0"
#10104317666
1"
#10104415229
0"
#10104707291
1"
#10105044000
0"
#10105141437
1"
#10105369250
0"
#10105899583
1"
#10452514208
0!
#10453141854
1!
#10453239437
0!
#10453466625
1!
#10453564187
0!
#10453764062
1!
#10453991895
0!
#10454484645
1!
#10454614791
0!
#10455534375
1!
#10455631937
0!
#10455961583
1!
#10456059145
0!
#10456162645
1!
#10456260208
0!
#10456584729
1!
#10456682291
0!
#10457634312
1!
#10457731875
0!
#10457834458
1!
#10457932020
0!
#10458651854
1!
#10458787104
0!
#10458981854
1!
#10459280875
0!
#10459702687
1!
#10459805395
0!
#10459902833
1!
#10460527791
0!
#10460657666
1!
#10460897229
0"
#10461552187
1"
#10461649750
0"
#10461849645
1"
#10461979770
0"
#10462174520
1"
#10462375854
0"
#10462900104
1"
#10463030250
0"
#10463982270
1"
#10464079833
0"
#10464377979
1"
#10464508104
0"
#10464605541
1"
#10464703104
0"
#10465032750
1"
#10465130312
0"
#10466082333
1"
#10466179895
0"
#10466309791
1"
#10466413416
0"
#10467132312
1"
#10467262437
0"
#10467463250
1"
#10467793895
0"
#10468183270
1"
#10468313416
0"
#10468416916
1"
#10469040625
0"
